{
  "name": "meurtre à l'église",
  "listItems": [
    {
      "name": "church",
      "kind": "building",
      "isClue": false
    },
    {
      "name": "body-part",
      "kind": "item",
      "isClue": false
    },
    {
      "name": "nun",
      "kind": "character",
      "isClue": true
    },
    {
      "name": "wanted",
      "kind": "item",
      "isClue": false
    }
  ],
  "listChoices": [
    {
      "name": "detective",
      "kind": "character",
      "description": [
        {
          "name": "flashlight",
          "kind": "item"
        },
        {
          "name": "gun",
          "kind": "item"
        },
        {
          "name": "evidence",
          "kind": "item"
        }
      ],
      "isClue": false
    },
    {
      "name": "doctor",
      "kind": "character",
      "description": [
        {
          "name": "clipboard",
          "kind": "item"
        },
        {
          "name": "stethoscope",
          "kind": "item"
        }
      ],
      "isClue": false
    },
    {
      "name": "nun",
      "kind": "character",
      "description": [
        {
          "name": "flask",
          "kind": "item"
        },
        {
          "name": "bible",
          "kind": "item"
        },
        {
          "name": "dossier",
          "kind": "item"
        }
      ],
      "isClue": true
    },
    {
      "name": "teacher",
      "kind": "character",
      "description": [
        {
          "name": "glasses",
          "kind": "item"
        },
        {
          "name": "briefcase",
          "kind": "item"
        },
        {
          "name": "notebookk",
          "kind": "item"
        }
      ],
      "isClue": false
    }
  ],
  "solution": "nun",
  "reward": "money"
}