{
  "name": "Nom de la scene",
  "listItems": [
    {
      "name": "Objet 1 de scene",
      "kind": "building",
      "description": [
        {
          "name": "money",
          "kind": "item"
        },
        {
          "name": "worker",
          "kind": "character"
        },
        {
          "name": "gun",
          "kind": "item"
        }
      ],
      "isClue": false
    },
    {
      "name": "Objet 2 de la scene : il est secret !",
      "kind": "character",
      "description": [],
      "isClue": true
    }
  ],
  "listChoices": [
    "thief",
    "worker"
  ],
  "solution": "thief",
  "reward": "money"
}